Inferential Statistics - Lab on data analytics with pakwheels data
…
library(janitor)

Attaching package: 'janitor'

The following objects are masked from 'package:stats':

    chisq.test, fisher.test

pakwheels <- pakwheels |> clean_names()

pakwheels

# A tibble: 56,186 × 16
     ad_no name    price model…¹ locat…² mileage regis…³ engin…⁴ engin…⁵ trans…⁶
     <dbl> <chr>   <chr>   <dbl> <chr>     <dbl> <chr>   <chr>   <chr>   <chr>  
 1 4096758 Toyota… 2385…    2017 G- 8, …    9869 Un-Reg… Petrol  1000 cc Automa…
 2 4168305 Toyota… 1110…    2019 Peshaw…   11111 Islama… Petrol  1300 cc Automa…
 3 4168298 Suzuki… 1530…    2019 Akora …   17500 Un-Reg… Petrol  660 cc  Automa…
 4 4168307 Suzuki… 1650…    2019 Abdull…    9600 Lahore  Petrol  660 cc  Manual 
 5 4168306 Toyota… 1435…    2010 9th Av…  120000 Islama… Petrol  1300 cc Manual 
 6 4168303 Honda … 3850…    2017 Peshaw…   22000 Islama… Petrol  1500 cc Automa…
 7 4168304 Suzuki… 1440…    2017 Gulber…   31000 Lahore  Petrol  1000 cc Manual 
 8 4168309 Mitsub… 1425…    2012 Askari…  101000 Lahore  Petrol  1000 cc Automa…
 9 4168310 Toyota… 2650…    1998 Sargod…  110000 Rawalp… Diesel  3000 cc Automa…
10 4168311 Honda … 3350…    2017 Air Av…   60000 Lahore  Petrol  1800 cc Automa…
# … with 56,176 more rows, 6 more variables: color <chr>, assembly <chr>,
#   body_type <chr>, features <chr>, last_updated <chr>, url <chr>, and
#   abbreviated variable names ¹​model_year, ²​location, ³​registered_city,
#   ⁴​engine_type, ⁵​engine_capacity, ⁶​transmission
…
IQR

range

min

max

We can also filter based on multiple criteria. Suppose we are interested in cars headed to by Toyota and are between 1000 and 1300 cc engine_capacity, save it as toyota_cars_small.

pakwheels |> na.omit() |> 
  filter(company=="Toyota", hp>999 &hp<1300)

# A tibble: 2,579 × 18
     ad_no name    price model…¹ locat…² mileage regis…³ engin…⁴ engin…⁵ trans…⁶
     <dbl> <chr>   <dbl>   <dbl> <chr>     <dbl> <chr>   <chr>   <chr>   <chr>  
 1 4096758 Toyot… 2.38e6    2017 G- 8, …    9869 Un-Reg… Petrol  1000 cc Automa…
 2 4099087 Toyot… 9.65e5    2001 Johar …  135000 Karachi Petrol  1000 cc Automa…
 3 4168130 Toyot… 2.35e6    2017 Lahore…   35000 Un-Reg… Petrol  1000 cc Automa…
 4 4168233 Toyot… 1.65e6    2014 Bahadu…   80000 Karachi Petrol  1000 cc Automa…
 5 4168247 Toyot… 1.27e6    2006 Gulsha…  105000 Karachi Petrol  1000 cc Automa…
 6 4167547 Toyot… 1.25e6    2007 I- 8, …  177000 Islama… Petrol  1000 cc Automa…
 7 4153127 Toyot… 2.48e6    2017 Pak Ar…   66198 Un-Reg… Petrol  1000 cc Automa…
 8 4160338 Toyot… 2.05e6    2016 Pak Ar…   16667 Un-Reg… Petrol  1000 cc Automa…
 9 4163093 Toyot… 2.30e6    2016 Pak Ar…   53122 Un-Reg… Petrol  1000 cc Automa…
10 4089955 Toyot… 2.28e6    2016 Pak Ar…   75546 Un-Reg… Petrol  1000 cc Automa…
# … with 2,569 more rows, 8 more variables: color <chr>, assembly <chr>,
#   body_type <chr>, features <chr>, last_updated <chr>, url <chr>, hp <dbl>,
#   company <chr>, and abbreviated variable names ¹​model_year, ²​location,
#   ³​registered_city, ⁴​engine_type, ⁵​engine_capacity, ⁶​transmission
…
